<svg width="93" height="99" viewBox="0 0 93 99" fill="none" xmlns="http://www.w3.org/2000/svg">
<g clip-path="url(#clip0_7_92)" filter="url(#filter0_f_7_92)">
<path d="M53.5931 2.26093L53.557 23.0049L53.521 43.7489L51.8627 38.9334V38.921L49.7117 85.1011C51.8266 91.2256 52.9562 94.4977 52.9682 94.51C52.9802 94.5224 54.1819 94.5965 55.6359 94.6705C60.0341 94.8928 65.4897 95.3744 69.6355 95.9053C70.5968 96.0288 71.414 96.0905 71.474 96.0411C71.5341 95.9917 71.5461 74.8773 71.5341 49.1078L71.4981 2.26093H53.5931Z" fill="#B1060F"/>
<path d="M21.2079 2.19918V49.0955C21.2079 74.8896 21.2319 96.0164 21.268 96.0535C21.304 96.0905 22.8542 95.93 24.7288 95.7201C26.6034 95.5102 29.187 95.2385 30.4728 95.1274C32.4436 94.9545 38.3558 94.5718 39.0288 94.5594C39.233 94.5594 39.2451 93.5099 39.2691 74.6921L39.3051 54.8247L40.7351 58.9736C40.9514 59.6156 41.0235 59.8132 41.2398 60.4429L43.3909 14.2752C42.9342 12.954 43.1745 13.6454 42.6578 12.139C40.9034 7.03945 39.4133 2.73012 39.3532 2.53256L39.233 2.18683H21.2079V2.19918Z" fill="#B1060F"/>
<path d="M53.5931 2.26093L53.557 23.0049L53.521 43.7489L51.8627 38.9334V38.921L49.7117 85.1011C51.8266 91.2256 52.9562 94.4977 52.9682 94.51C52.9802 94.5224 54.1819 94.5965 55.6359 94.6705C60.0341 94.8928 65.4897 95.3744 69.6355 95.9053C70.5968 96.0288 71.414 96.0905 71.474 96.0411C71.5341 95.9917 71.5461 74.8773 71.5341 49.1078L71.4981 2.26093H53.5931Z" fill="#B1060F"/>
<path d="M21.2079 2.19918V49.0955C21.2079 74.8896 21.2319 96.0164 21.268 96.0535C21.304 96.0905 22.8542 95.93 24.7288 95.7201C26.6034 95.5102 29.187 95.2385 30.4728 95.1274C32.4436 94.9545 38.3558 94.5718 39.0288 94.5594C39.233 94.5594 39.2451 93.5099 39.2691 74.6921L39.3051 54.8247L40.7351 58.9736C40.9514 59.6156 41.0235 59.8132 41.2398 60.4429L43.3909 14.2752C42.9342 12.954 43.1745 13.6454 42.6578 12.139C40.9034 7.03945 39.4133 2.73012 39.3532 2.53256L39.233 2.18683H21.2079V2.19918Z" fill="#B1060F"/>
<path d="M21.2079 2.19918V28.5243L39.2571 77.7173C39.2571 76.5936 39.2571 75.9762 39.2691 74.6921L39.3052 54.8248L40.7351 58.9736C48.6662 82.0883 52.9322 94.4853 52.9562 94.51C52.9682 94.5224 54.1699 94.5965 55.6239 94.6705C60.0221 94.8928 65.4777 95.3744 69.6235 95.9053C70.5848 96.0288 71.402 96.0905 71.462 96.0411C71.4981 96.0041 71.5221 85.6568 71.5221 71.0495L53.5691 17.9794L53.557 23.0049L53.521 43.7489L51.8627 38.9334C50.2404 34.2289 49.1589 31.0803 42.6338 12.139C40.8793 7.03945 39.3893 2.73012 39.3292 2.53256L39.209 2.18683H21.2079V2.19918Z" fill="url(#paint0_radial_7_92)"/>
<path d="M21.2079 2.19918L39.2931 54.8618V54.8371L40.7231 58.9859C48.6662 82.0883 52.9322 94.4853 52.9562 94.51C52.9682 94.5224 54.1699 94.5965 55.6239 94.6705C60.0221 94.8928 65.4777 95.3744 69.6235 95.9053C70.5728 96.0288 71.4019 96.0905 71.45 96.0411L53.521 43.7366V43.7489L51.8627 38.9334C50.2404 34.2289 49.1589 31.0803 42.6338 12.139C40.8793 7.03945 39.3893 2.73012 39.3292 2.53256L39.209 2.18683H30.2084L21.2079 2.19918Z" fill="#E50914"/>
</g>
<defs>
<filter id="filter0_f_7_92" x="-1.50247" y="-0.0172119" width="95.7563" height="98.2826" filterUnits="userSpaceOnUse" color-interpolation-filters="sRGB">
<feFlood flood-opacity="0" result="BackgroundImageFix"/>
<feBlend mode="normal" in="SourceGraphic" in2="BackgroundImageFix" result="shape"/>
<feGaussianBlur stdDeviation="1" result="effect1_foregroundBlur_7_92"/>
</filter>
<radialGradient id="paint0_radial_7_92" cx="0" cy="0" r="1" gradientUnits="userSpaceOnUse" gradientTransform="translate(45.5227 48.5781) rotate(-19.5871) scale(3.32591 124.443)">
<stop/>
<stop offset="1" stop-opacity="0"/>
</radialGradient>
<clipPath id="clip0_7_92">
<rect width="91.7564" height="94.2826" fill="white" transform="translate(0.497528 1.98279)"/>
</clipPath>
</defs>
</svg>
